      6       6       6       6       6
     12      12      12      12      12
     12      12      12      12      12
     12      12      12      12      12
     12      12      12      12      12
     12      12      12      12      12
     12      12      12      12      12
     12      12      12      12      18
     12      12      12      12      18
     12      12      12      12      72
     12      12      12      18     210
     12      12      12      18     402
     12      12      12      36     432
     12      12      12      90     570
     12      12      12     186     690
     12      12      18     276     828
     12      12      18     354     864
     12      12      24     438     978
     12      12      36     504    1068
     12      12      66     564    1104
     12      18      96     624    1152
     12      18     132     654    1188
     12      18     162     702    1290
     18      24     192     726    1278
     18      30     216     768    1314
     18      42     240     792    1344
     24      54     258     810    1368
     24      66     270     822    1398
     36      78     294     834    1368
     36      84     306     846    1392
     48      96     312     852    1398
     48     102     318     846    1386
     60     108     330     864    1434
     66     120     342     894    1428
     66     126     342     888    1416
     72     126     342     882    1416
     72     126     348     894    1428
     78     132     348     882    1446
     84     132     348     888    1428
     84     138     354     912    1452
     84     138     354     906    1470
     84     138     360     906    1434
     84     138     366     924    1494
     90     144     360     888    1416
     84     144     360     912    1452
     90     144     360     906    1464
     90     144     360     894    1416
     96     150     360     906    1470
     90     150     372     924    1464
     96     150     366     918    1470
     96     150     366     918    1446
     96     150     366     912    1452
     96     150     366     918    1458
     96     150     372     918    1452
     96     150     372     912    1440
     96     150     372     918    1446
     96     150     372     930    1482
     96     150     366     918    1464
     96     150     372     924    1464
     96     150     372     924    1464
     96     150     372     900    1428
     96     150     372     906    1458
     96     156     372     930    1482
    102     150     366     912    1482
     96     156     372     918    1476
    102     156     372     924    1458
     96     156     366     906    1476
     96     150     372     930    1458
    102     156     372     924    1470
    102     156     366     906    1440
    102     150     372     924    1470
     96     156     372     912    1452
    102     150     366     918    1446
    102     156     378     930    1476
    102     156     372     912    1476
    102     156     378     936    1512
    102     156     366     918    1452
    102     156     372     912    1476
    102     156     372     942    1464
     96     156     366     912    1452
    102     156     372     924    1458
    102     156     378     930    1500
    102     156     372     906    1452
     96     150     372     918    1482
    102     156     372     912    1464
    102     156     366     918    1464
     96     150     372     924    1476
    102     156     366     906    1434
    102     156     372     918    1470
    102     150     372     918    1440
     96     150     378     924    1476
    102     156     372     918    1494
     96     150     372     930    1452
     96     150     366     912    1470
     96     150     372     918    1512
     96     150     372     930    1470
     96     150     366     924    1506
     96     150     372     924    1482
     96     150     372     912    1464
     96     150     366     918    1458
     96     150     366     936    1494
     96     144     366     906    1458
     96     144     366     918    1470
     96     144     366     918    1446
     96     144     366     918    1464
     90     150     366     912    1440
     90     144     366     912    1458
     90     144     360     906    1482
     90     144     360     918    1482
     90     144     360     900    1458
     90     138     354     894    1446
     84     138     354     900    1428
     84     138     360     912    1446
     84     132     354     882    1452
     84     132     354     906    1488
     78     132     348     900    1446
     72     132     342     888    1398
     72     126     342     876    1392
     72     126     342     882    1422
     66     120     336     888    1458
     60     114     330     876    1404
     60     114     336     888    1428
     54     108     324     876    1428
     54     102     324     888    1422
     48      96     312     864    1416
     42      90     312     864    1440
     36      84     306     858    1422
     36      78     288     828    1398
     30      72     282     816    1368
     24      66     276     828    1386
     24      54     264     798    1350
     24      48     252     798    1356
     18      42     234     786    1332
     18      36     228     768    1320
     18      30     204     750    1302
     18      24     186     720    1266
     12      24     162     714    1254
     12      18     144     684    1248
     12      18     126     648    1224
     12      18     108     642    1206
     12      18      84     606    1134
     12      12      72     570    1098
     12      12      48     540    1122
     12      12      36     498    1026
     12      12      30     456     990
     12      12      24     432     966
     12      12      18     402     966
     12      12      18     360     858
     12      12      18     312     834
     12      12      18     264     744
     12      12      12     204     696
     12      12      12     150     600
     12      12      12     120     558
     12      12      12      72     492
     12      12      12      54     426
     12      12      12      30     426
     12      12      12      24     426
     12      12      12      18     330
     12      12      12      18     276
     12      12      12      18     210
     12      12      12      18     114
     12      12      12      12      72
     12      12      12      12      36
     12      12      12      12      24
     12      12      12      12      18
     12      12      12      12      18
     12      12      12      12      18
     12      12      12      12      18
     12      12      12      12      12
     12      12      12      12      12
     12      12      12      12      12
     12      12      12      12      12
     12      12      12      12      12
     12      12      12      12      12
     12      12      12      12      12
     12      12      12      12      12
     12      12      12      12      12
     12      12      12      12      12
     12      12      12      12      12
     12      12      12      12      12
     12      12      12      12      12
     12      12      12      12      12
     12      12      12      12      12
     12      12      12      12      12
     12      12      12      12      12
     12      12      12      12      12
     12      12      12      12      12
     12      12      12      12      12
     12      12      12      12      12
     12      12      12      12      12
     12      12      12      12      12
     12      12      12      12      12
     12      12      12      12      12
     12      12      12      12      12
     12      12      12      12      12
     12      12      12      12      12
     12      12      12      12      12
     12      12      12      12      12
     12      12      12      12      12
     12      12      12      12      12
     12      12      12      12      12
